Análisis de Datos con R - III. Manipulación
…
b. Más de una variable por columna

La siguiente base de datos proviene de la Organización Mundial de la Salud y contiene el número de casos confirmados de tuberculosis por país y año, la información esta por grupo demográfico de acuerdo a sexo (m, f), y edad (0-4, 5-14, etc).

tb <- read.csv("data/tb.csv") %>% tbl_df()
print(tb, n = 10, width = NULL)

## # A tibble: 5,769 × 22
##      iso2  year new_sp_m04 new_sp_m514 new_sp_m014 new_sp_m1524
## *  <fctr> <int>      <int>       <int>       <int>        <int>
## 1      AD  1989         NA          NA          NA           NA
## 2      AD  1990         NA          NA          NA           NA
## 3      AD  1991         NA          NA          NA           NA
## 4      AD  1992         NA          NA          NA           NA
## 5      AD  1993         NA          NA          NA           NA
## 6      AD  1994         NA          NA          NA           NA
## 7      AD  1996         NA          NA           0            0
## 8      AD  1997         NA          NA           0            0
## 9      AD  1998         NA          NA           0            0
## 10     AD  1999         NA          NA           0            0
## # ... with 5,759 more rows, and 16 more variables: new_sp_m2534 <int>,
## #   new_sp_m3544 <int>, new_sp_m4554 <int>, new_sp_m5564 <int>,
## #   new_sp_m65 <int>, new_sp_mu <int>, new_sp_f04 <int>,
## #   new_sp_f514 <int>, new_sp_f014 <int>, new_sp_f1524 <int>,
## #   new_sp_f2534 <int>, new_sp_f3544 <int>, new_sp_f4554 <int>,
## #   new_sp_f5564 <int>, new_sp_f65 <int>, new_sp_fu <int>
…
Las variables sexo y edad se obtienen separando la columna demog, para esto se usa la función separate()con los siguientes argumentos: tidyr::separate(data, col = name_variabletoseparate, into = c(vector with names using ""), sep)

tb.tidy <- tb.long %>% 
  separate(col = demog, into = c("sex", "age"), sep = 8)
tb.tidy

## # A tibble: 35,750 × 5
##      iso2  year      sex   age casos
## *  <fctr> <int>    <chr> <chr> <int>
## 1      AD  2005 new_sp_m    04     0
## 2      AD  2006 new_sp_m    04     0
## 3      AD  2008 new_sp_m    04     0
## 4      AE  2006 new_sp_m    04     0
## 5      AE  2007 new_sp_m    04     0
## 6      AE  2008 new_sp_m    04     0
## 7      AG  2007 new_sp_m    04     0
## 8      AL  2005 new_sp_m    04     0
## 9      AL  2006 new_sp_m    04     1
## 10     AL  2007 new_sp_m    04     0
## # ... with 35,740 more rows
…
c. Variables almacenadas en filas y columnas

Uno de los problemas más difícil es cuando las variables están tanto en filas como en columnas. Para este problema veamos una base de datos de Global Historical Climatology Network que contiente el clima por día en Cuernavaca (estación MX17004). ¿Cuáles son las variables en estos datos?

clima <- read.delim("data/clima.txt", stringsAsFactors=FALSE) %>% tbl_df()
print(clima, n = 4)

## # A tibble: 22 × 35
##            id  year month element    d1    d2    d3    d4    d5    d6
##         <chr> <int> <int>   <chr> <int> <int> <int> <int> <int> <int>
## 1 MX000017004  2010     1    TMAX    NA    NA    NA    NA    NA    NA
## 2 MX000017004  2010     1    TMIN    NA    NA    NA    NA    NA    NA
## 3 MX000017004  2010     2    TMAX    NA   273   241    NA    NA    NA
## 4 MX000017004  2010     2    TMIN    NA   144   144    NA    NA    NA
## # ... with 18 more rows, and 25 more variables: d7 <int>, d8 <int>,
## #   d9 <lgl>, d10 <int>, d11 <int>, d12 <lgl>, d13 <int>, d14 <int>,
## #   d15 <int>, d16 <int>, d17 <int>, d18 <lgl>, d19 <lgl>, d20 <lgl>,
## #   d21 <lgl>, d22 <lgl>, d23 <int>, d24 <lgl>, d25 <int>, d26 <int>,
## #   d27 <int>, d28 <int>, d29 <int>, d30 <int>, d31 <int>
…
    ) %>% 
  select(-time.ms)
dim(song)

## [1] 317   7

song

## # A tibble: 317 × 7
##            artist                   track  year   time song_id time.secs
##            <fctr>                  <fctr> <int> <fctr>   <int>     <dbl>
## 1           2 Pac Baby Don't Cry (Keep...  2000   4:22       1       502
## 2         2Ge+her The Hardest Part Of ...  2000   3:15       2       375
## 3    3 Doors Down              Kryptonite  2000   3:53       3       413
## 4    3 Doors Down                   Loser  2000   4:24       4       504
## 5        504 Boyz           Wobble Wobble  2000   3:35       5       395
## 6            98^0 Give Me Just One Nig...  2000   3:24       6       384
## 7         A*Teens           Dancing Queen  2000   3:44       7       404
## 8         Aaliyah           I Don't Wanna  2000   4:15       8       495
## 9         Aaliyah               Try Again  2000   4:03       9       483
## 10 Adams, Yolanda           Open My Heart  2000   5:30      10       630
## # ... with 307 more rows, and 1 more variables: artist.top <fctr>

La segunda tabla rank almacena el ranking de la canción en cada semana por song_id.

rank <- billboard.tidy %>%
  left_join(song, by = c("artist", "track", "year", "time")) %>%
  select(song_id, artist, date, rank) %>% 
  arrange(song_id, date) 
dim(rank)

## [1] 5307    4

rank

## # A tibble: 5,307 × 4
##    song_id  artist       date  rank
##      <int>  <fctr>     <date> <int>
## 1        1   2 Pac 2000-02-26    87
## 2        1   2 Pac 2000-03-04    82
## 3        1   2 Pac 2000-03-11    72
## 4        1   2 Pac 2000-03-18    77
## 5        1   2 Pac 2000-03-25    87
## 6        1   2 Pac 2000-04-01    94
## 7        1   2 Pac 2000-04-08    99
## 8        2 2Ge+her 2000-09-02    91
## 9        2 2Ge+her 2000-09-09    87
## 10       2 2Ge+her 2000-09-16    92
## # ... with 5,297 more rows
…
